<?xml version="1.0" encoding="UTF-8"?>
<svg width="24px" height="24px" viewBox="0 0 24 24" version="1.1" xmlns="http://www.w3.org/2000/svg" xmlns:xlink="http://www.w3.org/1999/xlink">
    <g id="@@-DSM" stroke="none" stroke-width="1" fill="none" fill-rule="evenodd">
        <g id="00-DSM_CHATCONE_02-asset" transform="translate(-560.000000, -312.000000)" fill="#6B7884">
            <g id="ic/agent" transform="translate(560.000000, 312.000000)">
                <path d="M12.1863157,11.0574713 C12.1241108,11.056119 12.0619059,11.0547667 11.9997011,11.0547667 C11.9388485,11.0547667 11.8779959,11.056119 11.8184955,11.0574713 C9.83470067,10.9628127 8.24982843,9.31845842 8.24982843,7.31169709 C8.24982843,5.24408384 9.93206484,3.56186613 11.9997011,3.56186613 C14.0686896,3.56186613 15.750926,5.24408384 15.750926,7.31169709 C15.750926,9.31710615 14.1687583,10.9601082 12.1863157,11.0574713 L12.1863157,11.0574713 Z M11.9604849,20.0743746 L11.2532425,19.36714 L11.9604849,16.1473969 L12.6677274,19.36714 L11.9604849,20.0743746 Z M21.9497778,19.1372549 C21.7496404,18.1757945 21.3439563,17.2116295 20.8909425,16.3461799 C20.5758613,15.7430696 20.1958706,15.2292089 19.7604364,14.7085869 C19.5291965,14.4327248 19.2857861,14.1690331 19.0288529,13.9175118 C18.5203956,13.4225828 17.9619039,12.9776876 17.3614915,12.5977011 C17.020717,12.3813387 16.6677719,12.1866126 16.3040085,12.0135227 C16.1187462,11.9269777 15.9307792,11.8444895 15.7401077,11.7674104 C15.6697892,11.7403651 15.2330027,11.525355 15.1802638,11.5645707 C16.4743958,10.5949966 17.3128095,9.04935767 17.3128095,7.31169709 C17.3128095,4.38133874 14.9287397,2 11.9997011,2 C9.07066243,2 6.68794495,4.38133874 6.68794495,7.31169709 C6.68794495,9.05070994 7.52771087,10.5963489 8.8218429,11.5672752 C7.63589328,11.9567275 6.52296678,12.5638945 5.54797285,13.3657877 C3.76161088,14.8356998 2.52021777,16.8857336 2.05097659,19.1372549 C1.90357806,19.8431373 2.07937447,20.5679513 2.5323883,21.1250845 C2.98404984,21.6808654 3.65342847,22 4.37148919,22 L7.78058725,22 C8.21331687,22 8.56220513,21.6497634 8.56220513,21.2183908 C8.56220513,20.7870183 8.21331687,20.4381339 7.78058725,20.4381339 L4.37148919,20.4381339 C4.03747601,20.4381339 3.83598628,20.2515213 3.74538352,20.1406356 C3.58987131,19.9486139 3.53037099,19.6997972 3.58040535,19.4563895 C4.34444359,15.7809331 7.44657407,13.0412441 11.1274804,12.6626099 L9.63456322,19.4482759 C9.57776746,19.7079108 9.65755198,19.9810683 9.84687119,20.1690331 L11.4087547,21.7322515 C11.5548009,21.8782961 11.7535861,21.9607843 11.9604849,21.9607843 C12.1673838,21.9607843 12.3675212,21.8782961 12.5135675,21.7322515 L14.075451,20.1690331 C14.2647702,19.9810683 14.3445547,19.7079108 14.2864067,19.4482759 L12.7934895,12.6544963 C15.32631,12.8884381 17.6305953,14.2352941 19.0883532,16.3542934 C19.5197305,17.0006761 20.0809268,18.0338066 20.4203491,19.4563895 C20.4703834,19.6997972 20.4095308,19.9486139 20.2540186,20.1406356 C20.1634158,20.2515213 19.9632784,20.4381339 19.6292652,20.4381339 L16.1025188,20.4381339 C15.6697892,20.4381339 15.3195486,20.7870183 15.3195486,21.2183908 C15.3195486,21.6497634 15.6697892,22 16.1025188,22 L19.6292652,22 C20.3446214,22 21.014,21.6808654 21.4656616,21.1250845 C21.9200277,20.5679513 22.0958241,19.8431373 21.9497778,19.1372549 L21.9497778,19.1372549 Z" id="Fill-1"></path>
            </g>
        </g>
    </g>
</svg>