<?xml version="1.0" encoding="UTF-8"?>
<svg width="24px" height="24px" viewBox="0 0 24 24" version="1.1" xmlns="http://www.w3.org/2000/svg" xmlns:xlink="http://www.w3.org/1999/xlink">
    <g id="@@-DSM" stroke="none" stroke-width="1" fill="none" fill-rule="evenodd">
        <g id="00-DSM_CHATCONE_02-asset" transform="translate(-224.000000, -216.000000)" fill="#6B7884">
            <g id="ic/arrow_down" transform="translate(224.000000, 216.000000)">
                <path d="M7.03318827,3.5185804 C6.62065319,4.04334751 6.65934586,4.80144227 7.14831982,5.28250182 L13.9764825,11.9999568 L7.14808042,18.7174857 C6.61838905,19.2387382 6.61712248,20.0846606 7.14539605,20.607208 C7.40292258,20.8617119 7.74786613,21 8.1047353,21 C8.46045854,21 8.80422884,20.8626907 9.06125249,20.6099914 L16.8518369,12.9461891 C17.1066071,12.6961408 17.25,12.3553011 17.25,12.0000217 C17.25,11.645102 17.1067045,11.3048401 16.8521325,11.0541128 L9.06143198,3.38996896 C8.53160774,2.86905727 7.6743096,2.87016049 7.14588329,3.39238668 L7.03318827,3.5185804 Z" id="Path-Copy-16" transform="translate(12.000000, 12.000000) rotate(-270.000000) translate(-12.000000, -12.000000) "></path>
            </g>
        </g>
    </g>
</svg>