<?xml version="1.0" encoding="UTF-8"?>
<svg width="24px" height="24px" viewBox="0 0 24 24" version="1.1" xmlns="http://www.w3.org/2000/svg" xmlns:xlink="http://www.w3.org/1999/xlink">
    <title>BE8DAA38-1279-43F2-81A0-F56804B1D74A</title>
    <g id="@@-DSM" stroke="none" stroke-width="1" fill="none" fill-rule="evenodd">
        <g id="00-DSM_CHATCONE_02-asset" transform="translate(-272.000000, -556.000000)" fill="#6B7884">
            <g id="ic/check_corner" transform="translate(272.000000, 556.000000)">
                <path d="M18.4598455,4.57768797 L9.05128387,14.0581031 L9.05128387,14.0581031 L5.52761089,10.5344301 C5.13708659,10.1439059 4.50392162,10.1439059 4.11339732,10.5344301 L2.70210807,11.9457194 C2.31354137,12.3342861 2.31130915,12.9635853 2.69710948,13.3548988 L8.34210404,19.0805615 C8.72984803,19.4738464 9.36299708,19.4783383 9.75628201,19.0905943 C9.75867283,19.0882371 9.76105176,19.085868 9.76341871,19.0834869 L21.3093145,7.46862169 C21.6930396,7.08260445 21.6975659,6.46058191 21.3194991,6.0690213 L19.8890308,4.58749743 C19.5054125,4.19018718 18.8723448,4.17908767 18.4750346,4.56270598 C18.4699184,4.56764582 18.4648551,4.57264011 18.4598455,4.57768797 Z" id="Path"></path>
            </g>
        </g>
    </g>
</svg>