<?xml version="1.0" encoding="UTF-8"?>
<svg width="12px" height="12px" viewBox="0 0 12 12" version="1.1" xmlns="http://www.w3.org/2000/svg" xmlns:xlink="http://www.w3.org/1999/xlink">
    <g id="==-Design-Screen" stroke="none" stroke-width="1" fill="none" fill-rule="evenodd">
        <g id="01---UI-Chatcone_03-Chat-List-1" transform="translate(-1069.000000, -364.000000)">
            <rect fill="#FFFFFF" x="0" y="0" width="1366" height="768"></rect>
            <rect id="Rectangle-Copy-5" stroke="#E3E8EC" x="216" y="150" width="1134" height="440" rx="4"></rect>
            <g id="01_basic/display/badge/tag-copy-4" transform="translate(1039.000000, 360.000000)">
                <rect id="Rectangle-Copy-17" fill="#EDF3F7" x="0" y="0" width="46" height="20" rx="10"></rect>
                <g id="ic/close_circle" transform="translate(30.000000, 4.000000)" fill="#6B7884">
                    <path d="M6,1 C8.76142375,1 11,3.23857625 11,6 C11,8.76142375 8.76142375,11 6,11 C3.23857625,11 1,8.76142375 1,6 C1,3.23857625 3.23857625,1 6,1 Z M7.72845993,3.63241736 L6,5.36087729 L4.27154007,3.63241736 C4.09514478,3.45602207 3.80913495,3.45569977 3.63241736,3.63241736 C3.45569977,3.80913495 3.45602207,4.09514478 3.63241736,4.27154007 L5.36087729,6 L3.63241736,7.72845993 C3.45569977,7.90517752 3.45602207,8.19118735 3.63241736,8.36758264 C3.80881265,8.54397793 4.09482248,8.54430023 4.27154007,8.36758264 L6,6.63912271 L7.72845993,8.36758264 C7.90485522,8.54397793 8.19086505,8.54430023 8.36758264,8.36758264 C8.54430023,8.19086505 8.54397793,7.90485522 8.36758264,7.72845993 L6.63912271,6 L8.36758264,4.27154007 C8.54430023,4.09482248 8.54397793,3.80881265 8.36758264,3.63241736 C8.19118735,3.45602207 7.90517752,3.45569977 7.72845993,3.63241736 Z" id="Combined-Shape"></path>
                </g>
            </g>
        </g>
    </g>
</svg>