<?xml version="1.0" encoding="UTF-8"?>
<svg width="24px" height="24px" viewBox="0 0 24 24" version="1.1" xmlns="http://www.w3.org/2000/svg" xmlns:xlink="http://www.w3.org/1999/xlink">
    <g id="@@-DSM" stroke="none" stroke-width="1" fill="none" fill-rule="evenodd">
        <g id="00-DSM_CHATCONE_02-asset" transform="translate(-176.000000, -360.000000)" fill="#6B7884">
            <g id="ic/excellent_emotion" transform="translate(176.000000, 360.000000)">
                <path d="M12.0013636,2 L12.2423852,2.00288198 C17.6622551,2.13212395 21.9995029,6.56780731 21.9995029,12 C21.9995029,17.5224184 17.5219736,22 11.9994974,22 C6.47714309,22 2,17.5225404 2,12 C2,6.64876626 6.20838127,2.2647476 11.5164599,2.0115037 L11.7584828,2.00284851 L12.0013636,2 Z M11.9995651,3.40977242 L11.774219,3.41312582 C7.12606124,3.53276496 3.41024091,7.33993812 3.41024091,11.9999944 C3.41024091,16.7436995 7.25601136,20.5897591 11.9994974,20.5897591 C16.7431154,20.5897591 20.589262,16.7435675 20.589262,11.9999944 C20.589262,7.41646071 16.9939222,3.65782759 12.454542,3.42200766 L12.2267986,3.41316483 L11.9995651,3.40977242 Z M12.0000056,12.6350687 C13.7348709,12.6350687 15.3631873,12.7419024 16.6317189,12.9341201 C17.0847878,13.0025524 17.3911915,13.4288091 17.322614,13.869637 L17.3038311,13.9578952 L17.2299071,14.2082541 C17.1497846,14.4568392 17.0515292,14.6986554 16.9367243,14.9302311 C16.0231364,16.8067031 14.1236932,18.0187163 12.0000056,18.0187163 C9.87596694,18.0187163 7.9764673,16.8068533 7.06276448,14.9312367 C6.90990027,14.6228818 6.78648102,14.2960444 6.69511278,13.9571988 C6.56820436,13.4866324 6.88453451,13.006621 7.3672174,12.9336207 C8.63313395,12.7419263 10.2650438,12.6350687 12.0000056,12.6350687 Z M10.5213231,10.1388614 L10.5242964,10.2768622 L10.5239163,10.302745 C10.5155097,10.3595038 10.4772712,10.411669 10.4174672,10.4302647 L10.3686999,10.4374645 L10.3435674,10.4350621 C10.337723,10.4338333 10.3297965,10.4319865 10.3179068,10.4292164 C10.2963272,10.4205131 10.2819408,10.4147109 10.2707333,10.4062505 L10.2665357,10.4022169 L10.1020807,10.3055591 C8.995928,9.68938109 7.84701719,9.6764534 6.76313287,10.0463249 L6.58310607,10.1114768 C6.36980192,10.1930715 6.19826782,10.27428 6.07594945,10.3407942 L5.9532675,10.4126421 C5.85182391,10.4777477 5.7179291,10.4087181 5.71212233,10.2883195 C5.67086746,9.43293386 6.10515063,8.62586862 6.82869348,8.21674341 L6.95873735,8.14896533 L7.08809719,8.09060504 C8.72604177,7.39868198 10.4272905,8.4797117 10.5213231,10.1388614 Z M13.3632473,10.1388614 C13.4572799,8.4797117 15.1585286,7.39868198 16.7964732,8.09060504 L16.7964732,8.09060504 L16.9258331,8.14896533 L17.0558769,8.21674341 C17.7794198,8.62586862 18.2137029,9.43293386 18.1724481,10.2883195 C18.1666413,10.4087181 18.0327465,10.4777477 17.9313029,10.4126421 L17.9313029,10.4126421 L17.808621,10.3407942 C17.6863026,10.27428 17.5147685,10.1930715 17.3014643,10.1114768 L17.3014643,10.1114768 L17.1214375,10.0463249 C16.0375532,9.6764534 14.8886424,9.68938109 13.7824897,10.3055591 L13.7824897,10.3055591 L13.6180347,10.4022169 C13.6026296,10.4147109 13.5882432,10.4205131 13.5666636,10.4292164 C13.5547739,10.4319865 13.5468474,10.4338333 13.541003,10.4350621 L13.541003,10.4350621 L13.5158705,10.4374645 L13.4671032,10.4302647 C13.4072992,10.411669 13.3690607,10.3595038 13.3606541,10.302745 L13.3606541,10.302745 L13.360274,10.2768622 Z" id="Combined-Shape-Copy-16"></path>
            </g>
        </g>
    </g>
</svg>