<?xml version="1.0" encoding="UTF-8"?>
<svg width="24px" height="24px" viewBox="0 0 24 24" version="1.1" xmlns="http://www.w3.org/2000/svg" xmlns:xlink="http://www.w3.org/1999/xlink">
    <title>5944C6D8-9504-4DB0-A446-B4BDD8C7C4EC</title>
    <g id="@@-DSM" stroke="none" stroke-width="1" fill="none" fill-rule="evenodd">
        <g id="00-DSM_CHATCONE_02-asset" transform="translate(-176.000000, -264.000000)" fill="#6B7884">
            <g id="ic/location" transform="translate(176.000000, 264.000000)">
                <path d="M12.002517,2 C14.2705329,2 16.4039097,2.88367394 18.0075981,4.48740152 C19.6113326,6.09117521 20.4949959,8.22451608 20.4949959,10.4924788 C20.4949959,13.2190045 19.0339419,15.8097942 16.482028,18.449751 L16.1120073,18.8264212 L15.74475,19.1872517 L15.3611863,19.5508484 L14.7135506,20.1421301 L13.1815062,21.5043354 C13.1613356,21.5229833 13.1414254,21.5414923 13.1213727,21.5602253 C12.8152779,21.8461172 12.4158051,22 12.0024788,22 C11.5891937,22 11.1896509,21.8460948 10.8836219,21.5602241 L10.6234049,21.3224067 L10.0830394,20.8442936 C5.6498057,16.9445635 3.51,14.1702978 3.51,10.4924788 C3.51,8.22451608 4.39366328,6.09117521 5.99739776,4.48740152 C7.60107989,2.88368018 9.7344924,2 12.002517,2 Z M12.0024406,3.58091905 C8.19152737,3.58091905 5.09080441,6.68163054 5.09080441,10.492517 C5.09080441,13.3908944 6.82318943,15.7695466 10.4097727,19.0174553 L11.8319708,20.2840781 L11.9626499,20.4049454 C11.9846523,20.4254821 12.0202692,20.4254796 12.0422219,20.40499 L12.6088252,19.8943054 L12.87778,19.6573513 C16.950952,16.0743012 18.9140386,13.5778905 18.9140386,10.492517 C18.9140386,6.68163628 15.8133214,3.58091905 12.0024406,3.58091905 Z M12.002517,6.31575225 C14.1334097,6.31575225 15.8666193,8.04896186 15.8666193,10.1798545 C15.8666193,12.3107471 14.1334097,14.0439567 12.002517,14.0439567 C9.87161785,14.0439567 8.13837661,12.3107405 8.13837661,10.1798545 C8.13837661,8.04896842 9.87161785,6.31575225 12.002517,6.31575225 Z M12.002517,7.89659487 C10.7437279,7.89659487 9.71925744,8.92105453 9.71925744,10.1798163 C9.71925744,11.438578 10.7437279,12.4630376 12.002517,12.4630376 C13.2612979,12.4630376 14.2857384,11.4385863 14.2857384,10.1798163 C14.2857384,8.92104623 13.2612979,7.89659487 12.002517,7.89659487 Z" id="Combined-Shape-Copy-40"></path>
            </g>
        </g>
    </g>
</svg>