<?xml version="1.0" encoding="UTF-8"?>
<svg width="24px" height="24px" viewBox="0 0 24 24" version="1.1" xmlns="http://www.w3.org/2000/svg" xmlns:xlink="http://www.w3.org/1999/xlink">
    <g id="@@-DSM" stroke="none" stroke-width="1" fill="none" fill-rule="evenodd">
        <g id="00-DSM_CHATCONE_02-asset" transform="translate(-176.000000, -312.000000)" fill="#6B7884">
            <g id="ic/drag" transform="translate(176.000000, 312.000000)">
                <path d="M9.56219865,18.8756027 C10.4249771,18.8756027 11.1243973,19.5750229 11.1243973,20.4378014 C11.1243973,21.3005798 10.4249771,22 9.56219865,22 C8.69942016,22 8,21.3005798 8,20.4378014 C8,19.5750229 8.69942016,18.8756027 9.56219865,18.8756027 Z M14.3837994,18.8756027 C15.2465779,18.8756027 15.9459981,19.5750229 15.9459981,20.4378014 C15.9459981,21.3005798 15.2465779,22 14.3837994,22 C13.5210209,22 12.8216008,21.3005798 12.8216008,20.4378014 C12.8216008,19.5750229 13.5210209,18.8756027 14.3837994,18.8756027 Z M9.56219865,13.340405 C10.4249771,13.340405 11.1243973,14.0398252 11.1243973,14.9026037 C11.1243973,15.7653822 10.4249771,16.4648023 9.56219865,16.4648023 C8.69942016,16.4648023 8,15.7653822 8,14.9026037 C8,14.0398252 8.69942016,13.340405 9.56219865,13.340405 Z M14.3837994,13.340405 C15.2465779,13.340405 15.9459981,14.0398252 15.9459981,14.9026037 C15.9459981,15.7653822 15.2465779,16.4648023 14.3837994,16.4648023 C13.5210209,16.4648023 12.8216008,15.7653822 12.8216008,14.9026037 C12.8216008,14.0398252 13.5210209,13.340405 14.3837994,13.340405 Z M9.56219865,7.67020251 C10.4249771,7.67020251 11.1243973,8.36962267 11.1243973,9.23240116 C11.1243973,10.0951796 10.4249771,10.7945998 9.56219865,10.7945998 C8.69942016,10.7945998 8,10.0951796 8,9.23240116 C8,8.36962267 8.69942016,7.67020251 9.56219865,7.67020251 Z M14.3837994,7.67020251 C15.2465779,7.67020251 15.9459981,8.36962267 15.9459981,9.23240116 C15.9459981,10.0951796 15.2465779,10.7945998 14.3837994,10.7945998 C13.5210209,10.7945998 12.8216008,10.0951796 12.8216008,9.23240116 C12.8216008,8.36962267 13.5210209,7.67020251 14.3837994,7.67020251 Z M9.56219865,2 C10.4249771,2 11.1243973,2.69942016 11.1243973,3.56219865 C11.1243973,4.42497714 10.4249771,5.1243973 9.56219865,5.1243973 C8.69942016,5.1243973 8,4.42497714 8,3.56219865 C8,2.69942016 8.69942016,2 9.56219865,2 Z M14.3837994,2 C15.2465779,2 15.9459981,2.69942016 15.9459981,3.56219865 C15.9459981,4.42497714 15.2465779,5.1243973 14.3837994,5.1243973 C13.5210209,5.1243973 12.8216008,4.42497714 12.8216008,3.56219865 C12.8216008,2.69942016 13.5210209,2 14.3837994,2 Z" id="Combined-Shape"></path>
            </g>
        </g>
    </g>
</svg>