<?xml version="1.0" encoding="UTF-8"?>
<svg width="24px" height="24px" viewBox="0 0 24 24" version="1.1" xmlns="http://www.w3.org/2000/svg" xmlns:xlink="http://www.w3.org/1999/xlink">
    <g id="@@-DSM" stroke="none" stroke-width="1" fill="none" fill-rule="evenodd">
        <g id="00-DSM_CHATCONE_02-asset" transform="translate(-416.000000, -312.000000)" fill="#6B7884">
            <g id="ic/calendar" transform="translate(416.000000, 312.000000)">
                <path d="M17.0812512,2 C17.5132671,2 17.8705641,2.32129566 17.9271135,2.73799953 L17.9349096,2.85384182 L17.9329268,3.62560976 L19.5202756,3.62606589 C20.7608787,3.62606589 21.7906039,4.54010538 21.9717353,5.73058611 L21.99319,5.92076109 L22,6.10564143 L22,19.5202756 C22,20.8261514 20.9870995,21.8984099 19.7051597,21.9931898 L19.5202756,22 L4.47972443,22 C3.17384865,22 2.10159012,20.9870995 2.00681016,19.7051597 L2,19.5202756 L2,6.10564143 C2,4.79978792 3.01287928,3.7276448 4.29478449,3.6328753 L4.4796636,3.6260659 L6.06463415,3.62560976 L6.06509028,2.85365854 C6.06509028,2.46484417 6.32533977,2.13655217 6.68106387,2.03355741 L6.80294864,2.00779619 L6.91874882,2 C7.35076478,2 7.70806178,2.32129566 7.76461115,2.73794271 L7.77240733,2.85376805 L7.77073171,3.62560976 L16.2268293,3.62560976 L16.2275926,2.85365854 C16.2275926,2.46484417 16.4878421,2.13655217 16.8435662,2.03355741 L16.965451,2.00779619 L17.0812512,2 Z M20.2926829,10.2109756 L3.70731707,10.2109756 L3.70731707,19.5202756 C3.70731707,19.9070756 3.99403385,20.228956 4.36583364,20.2842831 L4.47972443,20.2926829 L19.5202756,20.2926829 C19.9070756,20.2926829 20.228956,20.0059661 20.2842831,19.6341664 L20.2926829,19.5202756 L20.2926829,10.2109756 Z M17.9329268,5.33170732 L17.9349097,6.51219512 C17.9349097,6.98348527 17.5525413,7.36585366 17.0812512,7.36585366 C16.6492352,7.36585366 16.2919382,7.044558 16.2353889,6.62809607 L16.2275927,6.51232595 L16.2268293,5.33292683 L7.77073171,5.33292683 L7.77240736,6.51219512 C7.77240736,6.94421109 7.45111169,7.30150808 7.034549,7.35805747 L6.91874882,7.36585366 C6.48673285,7.36585366 6.12943586,7.044558 6.07288648,6.62805552 L6.06509029,6.51227329 L6.06463415,5.33170732 L4.47972443,5.33338296 C4.09288859,5.33338296 3.77103745,5.62000923 3.71571606,5.99176297 L3.70731707,6.10564143 L3.70731707,8.50365854 L20.2926829,8.50365854 L20.2926829,6.10564143 C20.2926829,5.71887717 20.0059987,5.39709052 19.6341296,5.34178025 L19.5202148,5.33338296 L17.9329268,5.33170732 Z" id="Combined-Shape"></path>
            </g>
        </g>
    </g>
</svg>