<?xml version="1.0" encoding="UTF-8"?>
<svg width="24px" height="24px" viewBox="0 0 24 24" version="1.1" xmlns="http://www.w3.org/2000/svg" xmlns:xlink="http://www.w3.org/1999/xlink">
    <g id="@@-DSM" stroke="none" stroke-width="1" fill="none" fill-rule="evenodd">
        <g id="00-DSM_CHATCONE_02-asset" transform="translate(-32.000000, -216.000000)" fill="#6B7884">
            <g id="ic/following" transform="translate(32.000000, 216.000000)">
                <path d="M21.1463415,2 C21.578531,2 21.9356834,2.32113654 21.9922074,2.73781858 L22,2.85365854 L22,17.4878049 C22,17.9199944 21.6788635,18.2771468 21.2621814,18.3336708 L21.1463415,18.3414634 L6.86219512,18.3414634 L3.45225417,21.7524292 C3.35686477,21.8470504 3.24144442,21.9169051 3.11577273,21.9578574 L2.98704613,21.9890224 L2.85365854,22 C2.42146898,22 2.06431665,21.6788635 2.00779257,21.2621814 L2,21.1463415 L2,2.85365854 C2,2.42146898 2.32113654,2.06431665 2.73781858,2.00779257 L2.85365854,2 L21.1463415,2 Z M20.2926829,3.70731707 L3.70731707,3.70731707 L3.70731707,19.0865854 L5.90507232,16.890259 C6.03281584,16.759912 6.19805411,16.6748241 6.37637905,16.64551 L6.51219512,16.6341463 L20.2926829,16.6341463 L20.2926829,3.70731707 Z M12.2439024,6.26829268 C12.7024963,6.26829268 13.0739672,6.63984359 13.0739672,7.09838203 L13.0739672,7.09838203 L13.0731707,9.21829268 L15.1943255,9.21871574 C15.5767796,9.21871574 15.902458,9.47834001 15.9972534,9.84069421 L15.9972534,9.84069421 L16.0200618,9.96506854 L16.0243902,10.0487805 C16.0243902,10.5072943 15.6529194,10.8788452 15.1943009,10.8788452 L15.1943009,10.8788452 L13.0731707,10.8780488 L13.0739672,12.9992035 C13.0739672,13.3815787 12.814402,13.7073073 12.4520353,13.8021232 L12.4520353,13.8021232 L12.3276539,13.8249371 L12.2439024,13.8292683 C11.7853086,13.8292683 11.4138377,13.4577174 11.4138377,12.9992151 L11.4138377,12.9992151 L11.4134146,10.8780488 L9.29347938,10.8788452 C8.91102524,10.8788452 8.58534683,10.619221 8.49055146,10.2568668 L8.49055146,10.2568668 L8.46774306,10.1324924 L8.46341463,10.0487805 C8.46341463,9.59026665 8.83488551,9.21871574 9.29346787,9.21871574 L9.29346787,9.21871574 L11.4134146,9.21829268 L11.4138377,7.09835743 C11.4138377,6.71598224 11.6734029,6.39025364 12.0309748,6.29582622 L12.0309748,6.29582622 L12.1601509,6.27262391 Z" id="Combined-Shape"></path>
            </g>
        </g>
    </g>
</svg>