<?xml version="1.0" encoding="UTF-8"?>
<svg width="24px" height="24px" viewBox="0 0 24 24" version="1.1" xmlns="http://www.w3.org/2000/svg" xmlns:xlink="http://www.w3.org/1999/xlink">
    <g id="@@-DSM" stroke="none" stroke-width="1" fill="none" fill-rule="evenodd">
        <g id="00-DSM_CHATCONE_02-asset" transform="translate(-272.000000, -436.000000)" fill="#FFFFFF">
            <g id="ic/arrow_line_up" transform="translate(272.000000, 436.000000)">
                <path d="M11.0546346,2.38733433 L4.5046998,8.93726916 C3.9784334,9.46353556 3.9784334,10.3030488 4.5046998,10.8293152 L4.60911276,10.9225491 L4.74895748,11.0183886 C5.27593219,11.334491 5.94785154,11.2631672 6.38940296,10.836533 L10.6593024,6.5561943 L10.6592767,20.6694569 C10.6592767,21.4068229 11.2608015,22 12.0003286,22 L12.1315598,21.9932011 L12.2882019,21.9665538 C12.9002299,21.8268385 13.33085,21.2976811 13.33085,20.6694785 L13.3305301,6.5561943 L17.6038884,10.8299504 C18.1191833,11.34645 18.9689503,11.34645 19.4854269,10.8299734 C20.0116933,10.303707 20.0116933,9.46419371 19.4854269,8.93792731 L12.9363348,2.38751903 C12.4209131,1.87089274 11.5711461,1.87082282 11.0546346,2.38733433 Z" id="Path"></path>
            </g>
        </g>
    </g>
</svg>