<?xml version="1.0" encoding="UTF-8"?>
<svg width="24px" height="24px" viewBox="0 0 24 24" version="1.1" xmlns="http://www.w3.org/2000/svg" xmlns:xlink="http://www.w3.org/1999/xlink">
    <title>2735CF65-454A-4414-9550-B3C9FBF1869E</title>
    <defs>
        <polygon id="path-1" points="0 0 19.5999984 0 19.5999984 19.6 0 19.6"></polygon>
        <linearGradient x1="80.324658%" y1="9.80620997%" x2="19.3379539%" y2="100%" id="linearGradient-3">
            <stop stop-color="#FF6865" offset="0%"></stop>
            <stop stop-color="#FF5C88" offset="9.83123029%"></stop>
            <stop stop-color="#A736F5" offset="47.4270823%"></stop>
            <stop stop-color="#0984FF" offset="100%"></stop>
        </linearGradient>
    </defs>
    <g id="@@-DSM" stroke="none" stroke-width="1" fill="none" fill-rule="evenodd">
        <g id="00-DSM_CHATCONE_02-asset" transform="translate(-72.000000, -580.000000)">
            <g id="ic/channel/messenger" transform="translate(72.000000, 580.000000)">
                <circle id="Oval" fill="#FFFFFF" cx="12" cy="12" r="12"></circle>
                <g id="Group-3" transform="translate(2.200000, 2.400000)">
                    <mask id="mask-2" fill="white">
                        <use xlink:href="#path-1"></use>
                    </mask>
                    <g id="Clip-2"></g>
                    <path d="M8.0068597,7.0394968 C7.52924037,7.05543813 7.1211847,7.26251213 6.83246037,7.68190313 C6.66280603,7.9283078 6.5093217,8.18588447 6.34966337,8.43910013 C5.86484103,9.20800813 5.38039437,9.97711213 4.89612737,10.7463305 C4.56699437,11.2691441 4.23642403,11.7910431 3.91086803,12.3160618 C3.82043037,12.4619185 3.82791103,12.6195025 3.91361203,12.7662901 C4.04993003,12.9998731 4.3421007,13.0685058 4.56366237,12.9118201 C4.79905837,12.7453508 5.02507903,12.5656025 5.25493803,12.3913258 C6.06167403,11.7796261 6.8682957,11.1677468 7.67501537,10.5559981 C7.78260303,10.4744295 7.9026367,10.4360135 8.03911803,10.4332368 C8.21203903,10.4297088 8.34649503,10.5095788 8.4769657,10.6075625 C9.21698003,11.1632225 9.9562267,11.7198951 10.698152,12.2729581 C11.350048,12.7588911 12.3061687,12.6269831 12.7904194,11.8901211 C13.1176904,11.3921341 13.4282034,10.8831058 13.7458377,10.3787978 C14.3868884,9.3609698 15.0274164,8.34278247 15.668859,7.32518313 C15.793515,7.12741913 15.7703054,6.8854408 15.608785,6.73561513 C15.434933,6.5743398 15.2070177,6.56163247 15.0123244,6.7046798 C14.909261,6.78041747 14.8088274,6.8597158 14.7069564,6.9370378 C13.7920774,7.63135147 12.877329,8.32582847 11.962156,9.01971747 C11.6967067,9.22099313 11.432466,9.22040513 11.1666737,9.0210568 C10.4132824,8.45602147 9.66043003,7.89021847 8.9059607,7.32665313 C8.64911903,7.1348018 8.35650737,7.0447888 8.0068597,7.0394968 M9.2283317,-6.53333333e-06 L10.371665,-6.53333333e-06 C10.3981577,0.0049098 10.4244707,0.0122598 10.4511757,0.0143014667 C10.6191477,0.0271884667 10.7878057,0.0333461333 10.9550754,0.0519824667 C11.5290124,0.115960133 12.095828,0.218484467 12.652909,0.3731448 C13.2893374,0.549822467 13.9081257,0.775957467 14.4912257,1.0849188 C14.8869334,1.29457347 15.2728084,1.5269968 15.644408,1.77697847 C16.348146,2.25040013 16.9609727,2.82855113 17.4996297,3.48324013 C18.0314594,4.1295828 18.466073,4.8364078 18.8028827,5.6037968 C19.2300647,6.57701847 19.4828557,7.59316413 19.570043,8.65153147 C19.5786997,8.7567998 19.5899534,8.86183947 19.5999984,8.9670098 L19.5999984,10.0450098 C19.5952944,10.0688401 19.5890877,10.0924908 19.5861314,10.1165498 C19.533342,10.5452508 19.5015737,10.9777575 19.4243497,11.4020158 C19.2416777,12.4059278 18.8906907,13.3517258 18.386301,14.2401285 C17.826476,15.2261555 17.1046897,16.0759135 16.2317874,16.7968178 C15.4578487,17.4360065 14.59865,17.9333891 13.6656084,18.3020651 C12.5827247,18.7299658 11.45628,18.9617848 10.2949474,19.0078611 C9.83944337,19.0259095 9.3813097,19.0044801 8.92547903,18.9803885 C8.26593903,18.9455331 7.61974337,18.8204688 6.98228603,18.6492465 C6.80379537,18.6012755 6.62639903,18.6056528 6.4544417,18.6787608 C6.3117537,18.7394391 6.17060103,18.8037108 6.0282887,18.8652711 C5.46173437,19.1104181 4.8950167,19.3551405 4.3283317,19.6000098 L4.0343317,19.6000098 C4.02175503,19.5948975 4.00945603,19.5889685 3.99656903,19.5848035 C3.59454037,19.4552475 3.39754403,19.2022931 3.38207637,18.7805011 C3.3621497,18.2372708 3.34258237,17.6939098 3.33410537,17.1504181 C3.33003837,16.8891501 3.22361037,16.6885605 3.0426697,16.5102495 C2.77178137,16.2432321 2.49845937,15.9774398 2.24496603,15.6943178 C1.74890637,15.1402421 1.34513003,14.5210291 1.00841837,13.8585165 C0.7203147,13.2916518 0.4936897,12.7006955 0.3298827,12.0860558 C0.1937607,11.5752798 0.0929023667,11.0579868 0.0456500333,10.5308775 C0.0316197,10.3742571 0.0152863667,10.2178491 -1.63333333e-06,10.0613431 L-1.63333333e-06,8.95067647 C0.00465336667,8.9295738 0.0115787,8.90868347 0.0136040333,8.8873358 C0.0354907,8.65746047 0.0502560333,8.42671947 0.0789863667,8.19772613 C0.208134033,7.16843213 0.500762033,6.1868478 0.9578667,5.2557498 C1.30720403,4.54413913 1.74203003,3.88866613 2.2648927,3.29142147 C2.6277377,2.8769468 3.02006437,2.49358713 3.44992503,2.1497378 C4.0924947,1.63574413 4.7904507,1.21184513 5.5428457,0.877518133 C6.61738303,0.400062133 7.74160637,0.1216768 8.91303303,0.0300958 C9.01828503,0.0218638 9.12324303,0.0101038 9.2283317,-6.53333333e-06" id="Fill-1" fill="url(#linearGradient-3)" mask="url(#mask-2)"></path>
                </g>
            </g>
        </g>
    </g>
</svg>