<?xml version="1.0" encoding="UTF-8"?>
<svg width="24px" height="24px" viewBox="0 0 24 24" version="1.1" xmlns="http://www.w3.org/2000/svg" xmlns:xlink="http://www.w3.org/1999/xlink">
    <g id="@@-DSM" stroke="none" stroke-width="1" fill="none" fill-rule="evenodd">
        <g id="00-DSM_CHATCONE_02-asset" transform="translate(-272.000000, -168.000000)" fill="#6B7884">
            <g id="ic/rich_menu" transform="translate(272.000000, 168.000000)">
                <path d="M17.414507,12.8290141 C19.9431782,12.8290141 22,14.8858359 22,17.414507 C22,19.9431782 19.9431782,22 17.414507,22 C14.8858359,22 12.8290141,19.9431782 12.8290141,17.414507 C12.8290141,14.8858359 14.8858359,12.8290141 17.414507,12.8290141 Z M8.53183203,12.8290141 C9.8622889,12.8290141 10.9747525,13.8212655 11.1477513,15.1180558 L11.1654511,15.2967139 L11.1709859,15.468168 L11.1709859,19.3608461 C11.1709859,20.691303 10.1787345,21.8037666 8.88194418,21.9767653 L8.70328609,21.9944652 L8.53183203,22 L4.6391539,22 C3.30869703,22 2.19623339,21.0077486 2.02323467,19.7109583 L2.00553482,19.5323002 L2,19.3608461 L2,15.468168 C2,14.1377111 2.99225145,13.0252475 4.28904175,12.8522487 L4.46769984,12.8345489 L4.6391539,12.8290141 L8.53183203,12.8290141 Z M17.414507,14.5029903 C15.8093342,14.5029903 14.5029903,15.8093342 14.5029903,17.414507 C14.5029903,19.0196799 15.8093342,20.3260238 17.414507,20.3260238 C19.0196799,20.3260238 20.3260238,19.0196799 20.3260238,17.414507 C20.3260238,15.8093342 19.0196799,14.5029903 17.414507,14.5029903 Z M8.53183203,14.5029903 L4.6391539,14.5029903 C4.18987586,14.5029903 3.80604264,14.8136269 3.70203189,15.2350318 L3.68076413,15.3525566 L3.67397619,15.468168 L3.67397619,19.3608461 C3.67397619,19.8101241 3.98461287,20.1939574 4.40601778,20.2979681 L4.52354255,20.3192359 L4.6391539,20.3260238 L8.53183203,20.3260238 C8.98111007,20.3260238 9.36494329,20.0153871 9.46895404,19.5939822 L9.4902218,19.4764575 L9.49700974,19.3608461 L9.49700974,15.468168 C9.49700974,14.9361849 9.06381514,14.5029903 8.53183203,14.5029903 Z M8.53183203,2 C9.8622889,2 10.9747525,2.99225145 11.1477513,4.28904175 L11.1654511,4.46769984 L11.1709859,4.6391539 L11.1709859,8.53183203 C11.1709859,9.8622889 10.1787345,10.9747525 8.88194418,11.1477513 L8.70328609,11.1654511 L8.53183203,11.1709859 L4.6391539,11.1709859 C3.30869703,11.1709859 2.19623339,10.1787345 2.02323467,8.88194418 L2.00553482,8.70328609 L2,8.53183203 L2,4.6391539 C2,3.30869703 2.99225145,2.19623339 4.28904175,2.02323467 L4.46769984,2.00553482 L4.6391539,2 L8.53183203,2 Z M19.3608461,2 C20.691303,2 21.8037666,2.99225145 21.9767653,4.28904175 L21.9944652,4.46769984 L22,4.6391539 L22,8.53183203 C22,9.8622889 21.0077486,10.9747525 19.7109583,11.1477513 L19.5323002,11.1654511 L19.3608461,11.1709859 L15.468168,11.1709859 C14.1377111,11.1709859 13.0252475,10.1787345 12.8522487,8.88194418 L12.8345489,8.70328609 L12.8290141,8.53183203 L12.8290141,4.6391539 C12.8290141,3.30869703 13.8212655,2.19623339 15.1180558,2.02323467 L15.2967139,2.00553482 L15.468168,2 L19.3608461,2 Z M8.53183203,3.67397619 L4.6391539,3.67397619 C4.18987586,3.67397619 3.80604264,3.98461287 3.70203189,4.40601778 L3.68076413,4.52354255 L3.67397619,4.6391539 L3.67397619,8.53183203 C3.67397619,8.98111007 3.98461287,9.36494329 4.40601778,9.46895404 L4.52354255,9.4902218 L4.6391539,9.49700974 L8.53183203,9.49700974 C8.98111007,9.49700974 9.36494329,9.18637306 9.46895404,8.76496815 L9.4902218,8.64744338 L9.49700974,8.53183203 L9.49700974,4.6391539 C9.49700974,4.10717079 9.06381514,3.67397619 8.53183203,3.67397619 Z M19.3608461,3.67397619 L15.468168,3.67397619 C15.0188899,3.67397619 14.6350567,3.98461287 14.531046,4.40601778 L14.5097782,4.52354255 L14.5029903,4.6391539 L14.5029903,8.53183203 C14.5029903,8.98111007 14.8136269,9.36494329 15.2350318,9.46895404 L15.3525566,9.4902218 L15.468168,9.49700974 L19.3608461,9.49700974 C19.8101241,9.49700974 20.1939574,9.18637306 20.2979681,8.76496815 L20.3192359,8.64744338 L20.3260238,8.53183203 L20.3260238,4.6391539 C20.3260238,4.10717079 19.8928292,3.67397619 19.3608461,3.67397619 Z" id="Combined-Shape"></path>
            </g>
        </g>
    </g>
</svg>