<?xml version="1.0" encoding="UTF-8"?>
<svg width="24px" height="24px" viewBox="0 0 24 24" version="1.1" xmlns="http://www.w3.org/2000/svg" xmlns:xlink="http://www.w3.org/1999/xlink">
    <g id="@@-DSM" stroke="none" stroke-width="1" fill="none" fill-rule="evenodd">
        <g id="00-DSM_CHATCONE_02-asset" transform="translate(-512.000000, -312.000000)" fill="#6B7884">
            <g id="ic/user" transform="translate(512.000000, 312.000000)">
                <path d="M20.3126355,20.1380417 C20.2247754,20.2461772 20.0051251,20.4455521 19.6773394,20.4455521 L14.0036045,20.4455521 L11.396525,20.4455521 L4.3660274,20.4455521 C4.03655203,20.4455521 3.83886681,20.2461772 3.75100671,20.1380417 C3.59725153,19.9403565 3.53135646,19.6987412 3.57697613,19.4588156 C4.38630281,15.5591788 7.82467402,12.7104841 11.7902058,12.6243136 L12.2075413,12.6243136 C13.038833,12.644589 13.8278843,12.7780688 14.5949705,13.0179944 C14.6169356,13.0179944 14.6389006,13.0399594 14.659176,13.0399594 C17.4859058,14.0047309 19.8310946,16.4360902 20.4663907,19.4588156 C20.5305961,19.6987412 20.4663907,19.9403565 20.3126355,20.1380417 M8.2420095,7.30032948 C8.2420095,5.2423756 9.92824756,3.55613753 12.0098561,3.55613753 C14.0694996,3.55613753 15.7557376,5.2423756 15.7557376,7.30032948 C15.7557376,9.31773253 14.1776351,10.9583509 12.1838867,11.046211 L11.8138605,11.046211 C9.84207708,10.9583509 8.2420095,9.31773253 8.2420095,7.30032948 M18.4946073,13.3694348 C18.1651319,13.1007857 17.8272084,12.8456535 17.4690096,12.6175551 C17.1141899,12.3911464 16.7458534,12.2137366 16.3690687,12.0295683 C15.9973529,11.8504689 15.6205683,11.7034722 15.1863366,11.5514066 C16.4772042,10.5883247 17.3118752,9.05246262 17.3118752,7.30032948 C17.3118752,4.38742925 14.9447213,2 12.0098561,2 C9.07499082,2 6.68756158,4.38742925 6.68756158,7.30032948 C6.68756158,9.05246262 7.52054291,10.5883247 8.83337555,11.5733716 C7.62867841,11.9450874 6.5338064,12.5584185 5.54875952,13.3694348 C3.75100671,14.8360226 2.52603416,16.8956661 2.04280362,19.1293402 C1.91101347,19.8524964 2.08673367,20.5756526 2.52603416,21.1230886 C2.98392045,21.6924897 3.66314661,22 4.3660274,22 L11.396525,22 L14.0036045,22 L19.6773394,22 C20.4004956,22 21.0780321,21.6924897 21.5173326,21.1230886 C21.9769085,20.5756526 22.1526287,19.8524964 21.9988736,19.1293402 C21.5392977,16.8956661 20.2889809,14.8360226 18.4946073,13.3694348" id="Fill-5"></path>
            </g>
        </g>
    </g>
</svg>