<?xml version="1.0" encoding="UTF-8"?>
<svg width="24px" height="24px" viewBox="0 0 24 24" version="1.1" xmlns="http://www.w3.org/2000/svg" xmlns:xlink="http://www.w3.org/1999/xlink">
    <g id="@@-DSM" stroke="none" stroke-width="1" fill="none" fill-rule="evenodd">
        <g id="00-DSM_CHATCONE_02-asset" transform="translate(-80.000000, -360.000000)" fill="#6B7884">
            <g id="ic/verified" transform="translate(80.000000, 360.000000)">
                <path d="M11.1414154,2.12334388 C11.5019451,1.95782798 11.9509684,1.95618921 12.3377184,2.13481528 L12.3377184,2.13481528 L19.5712546,5.14687678 C20.1169654,5.39105369 20.456191,5.91873802 20.456191,6.49394672 L20.456191,6.49394672 L20.456191,12.0133282 C20.456191,14.0011577 19.9186741,15.8955772 18.9009971,17.4884628 C18.6748467,17.8407986 18.2061581,17.9424025 17.8603774,17.7195296 C17.5080416,17.4950179 17.4064378,17.0296069 17.6293107,16.6789099 C18.4929431,15.3269236 18.9485215,13.7143727 18.9485215,12.0133282 L18.9485215,12.0133282 L18.9485215,6.49394672 L11.7346506,3.51629941 L4.46178393,6.53983231 L4.50766952,12.0133282 C4.50766952,14.4092117 5.43029772,16.6412181 7.03957106,18.1357775 C8.30306367,19.3107764 9.88283912,20.1039417 11.7330118,20.4939692 C13.3472015,20.1514661 14.7663774,19.4959576 15.9413763,18.547109 C16.2625755,18.2832669 16.7378191,18.3340688 17.0016613,18.6585455 C17.2638647,18.9813834 17.2130628,19.4566271 16.8885861,19.7188305 C15.5267672,20.818446 13.8929123,21.5755583 12.032907,21.9705021 C11.9329419,21.9901674 11.8280606,22 11.7264567,22 C11.6248529,22 11.5248879,21.9901674 11.4298392,21.9721409 C9.29943657,21.5214788 7.48040051,20.6037669 6.0120615,19.2403093 C4.09797672,17.4606037 3,14.8270984 3,12.0133282 L3,12.0133282 L3,6.49394672 C3,5.91709925 3.33922564,5.39105369 3.86363243,5.15507063 L3.86363243,5.15507063 Z M15.1077334,8.53011996 C15.3633817,8.20072695 15.8369866,8.14336995 16.1663796,8.39737949 C16.4957726,8.6530278 16.5547684,9.12663268 16.2991201,9.45438693 L16.2991201,9.45438693 L11.7548075,15.2949676 C11.5614325,15.542422 11.2828414,15.699744 10.9714748,15.7341582 C10.9288668,15.7374358 10.8878975,15.7390746 10.8452895,15.7390746 C10.576531,15.7390746 10.3126888,15.6473034 10.1045649,15.4735936 L10.1045649,15.4735936 L7.65951821,13.4349622 C7.33995782,13.1678425 7.29734977,12.6925989 7.56283071,12.3730385 C7.83158919,12.0518393 8.30683284,12.01087 8.62639323,12.276351 L8.62639323,12.276351 L10.7879325,14.0822769 Z" id="Combined-Shape"></path>
            </g>
        </g>
    </g>
</svg>